F:\avel pakas\bank\bank\model\src\main\java\com\egs\bank\entity\TransactionInfo.java
F:\avel pakas\bank\bank\model\src\main\java\com\egs\bank\entity\UserKey.java
F:\avel pakas\bank\bank\model\src\main\java\com\egs\bank\entity\Transaction.java
F:\avel pakas\bank\bank\model\src\main\java\com\egs\bank\entity\VisaCard.java
F:\avel pakas\bank\bank\model\src\main\java\com\egs\bank\dto\UserDto.java
F:\avel pakas\bank\bank\model\src\main\java\com\egs\bank\entity\SharedAbstract.java
F:\avel pakas\bank\bank\model\src\main\java\com\egs\bank\dto\TransactionInfoDto.java
F:\avel pakas\bank\bank\model\src\main\java\com\egs\bank\entity\User.java
F:\avel pakas\bank\bank\model\src\main\java\com\egs\bank\entity\Account.java
F:\avel pakas\bank\bank\model\src\main\java\com\egs\bank\entity\Card.java
F:\avel pakas\bank\bank\model\src\main\java\com\egs\bank\entity\MasterCard.java
